<?xml version="1.0" encoding="utf-8"?>
<!-- Generator: Adobe Illustrator 22.0.1, SVG Export Plug-In . SVG Version: 6.00 Build 0)  -->
<svg version="1.1" id="レイヤー_1" xmlns="http://www.w3.org/2000/svg" xmlns:xlink="http://www.w3.org/1999/xlink" x="0px"
	 y="0px" viewBox="0 0 48 48" style="enable-background:new 0 0 48 48;" xml:space="preserve">
<style type="text/css">
	.st0{fill:#E50012;}
	.st1{fill:#009245;}
	.st2{fill:#8CC63F;}
	.st3{fill:#2E3192;}
</style>
<path class="st0" d="M9.8,47.3c0,0,10.6-1.8,18.8-8.7c7.3-6.1,10.3-12.3,11.1-14.3c0,0,0,0,0,0c0.1-0.2,0.1-0.4,0.2-0.5
	c0.7-1.9,1.2-4,1.2-6.2c0-9.4-7.6-17.1-17.1-17.1c-9.4,0-17.1,7.6-17.1,17.1c0,8.4,6.1,15.4,14.1,16.8C19,39.2,9.8,47.3,9.8,47.3z
	 M29.8,19.4c0-1.7,1.3-3.1,2.9-3.1c1.6,0,2.9,1.4,2.9,3.1c0,1.7-1.3,3.1-2.9,3.1C31.1,22.4,29.8,21.1,29.8,19.4z M17.5,19.4
	c0,1.7-1.3,3.1-2.9,3.1c-1.6,0-2.9-1.4-2.9-3.1c0-1.7,1.3-3.1,2.9-3.1C16.2,16.3,17.5,17.7,17.5,19.4z M20.9,19.4
	c0-1.7,1.3-3.1,2.9-3.1c1.6,0,2.9,1.4,2.9,3.1c0,1.7-1.3,3.1-2.9,3.1C22.2,22.4,20.9,21.1,20.9,19.4z"/>
</svg>
